{
  "definitions": {
    "IProjectTarget": {
      "properties": {
        "projectBase": {
          "type": "string"
        },
        "appDataPath": {
          "type": "string"
        },
        "metrics": {
          "type": "object",
          "properties": {
            "enabled": {
              "type": "boolean",
              "minimum": 1
            },
            "location": {
              "type": "string"
            },
            "port": {
              "type": "integer",
              "minimum": 1
            }
          }
        }
      }
    },
    "ISSLConfiguration": {
      "anyOf": [
        {
          "type": "string"
        },
        {
          "type": "object",
          "properties": {
            "certificatePath": {
              "type": "string"
            },
            "privateKeyPath": {
              "type": "string"
            }
          }
        }
      ]
    }
  },
  "properties": {
    "$interface": {
      "type": "string"
    },
    "domain": {
      "type": "object",
      "properties": {
        "location": {
          "type": "string"
        },
        "ports": {
          "type": "object",
          "properties": {
            "http": {
              "type": "integer",
              "minimum": 1
            },
            "https": {
              "type": "integer",
              "minimum": 1
            }
          }
        },
        "ssl": {
          "$ref": "#/definitions/ISSLConfiguration"
        },
        "origins": {
          "type": "array",
          "items": {
            "type": "string"
          }
        }
      }
    },
    "httpProxy": {
      "type": "string"
    },
    "connectorProxy": {
      "type": "boolean"
    },
    "certs": {
      "type": "object",
      "properties": {
        "external": {
          "type": "boolean"
        },
        "mail": {
          "type": "string"
        },
        "port": {
          "type": "integer",
          "minimum": 1
        },
        "location": {
          "type": "string"
        },
        "whitelist": {
          "type": "array",
          "items": {
            "type": "string"
          }
        }
      }
    },
    "sendmail": {
      "type": "object",
      "properties": {
        "location": {
          "type": "string"
        },
        "port": {
          "type": "integer",
          "minimum": 1
        },
        "user": {
          "type": "string"
        },
        "pass": {
          "type": "string"
        }
      }
    },
    "reverseProxy": {
      "type": "object",
      "properties": {
        "enabled": {
          "type": "boolean"
        },
        "withServer": {
          "type": "boolean"
        },
        "tunnels": {
          "type": "object",
          "additionalProperties": {
            "type": "object",
            "properties": {
              "location": {
                "type": "string"
              },
              "port": {
                "type": "integer",
                "minimum": 1
              },
              "ssl": {
                "$ref": "#/definitions/ISSLConfiguration"
              }
            }
          }
        }
      }
    },
    "tunnels": {
      "type": "object",
      "properties": {
        "hubLocation": {
          "type": "string"
        },
        "server": {
          "type": "object",
          "additionalProperties": {
            "type": "string"
          }
        },
        "agent": {
          "type": "object",
          "additionalProperties": {
            "type": "string"
          }
        }
      }
    }
  }
}